%YAML 1.1
%TAG !u! tag:unity3d.com,2011:
--- !u!221 &22100000
AnimatorOverrideController:
  m_ObjectHideFlags: 0
  m_PrefabParentObject: {fileID: 0}
  m_PrefabInternal: {fileID: 0}
  m_Name: BigPignon
  m_Controller: {fileID: 9100000, guid: f80e9e6b403114ca9845f2770512ec80, type: 2}
  m_Clips:
  - m_OriginalClip: {fileID: 7400000, guid: df30275e7273a43a3b0c681a360fe28f, type: 2}
    m_OverrideClip: {fileID: 7400000, guid: d35546ef7c276407991aaed3f6770e72, type: 2}
  - m_OriginalClip: {fileID: 7400000, guid: 78e9eda1afd284c5daf835146f44ad30, type: 2}
    m_OverrideClip: {fileID: 7400000, guid: e7f1439bc6ad743cf92ccb4370074cfd, type: 2}
  - m_OriginalClip: {fileID: 7400000, guid: 024ee8b86e98d41218c288418fff2650, type: 2}
    m_OverrideClip: {fileID: 7400000, guid: d69b86d7c9c174d9180a00111eb53d6d, type: 2}
