%YAML 1.1
%TAG !u! tag:unity3d.com,2011:
--- !u!114 &11400000
MonoBehaviour:
  m_ObjectHideFlags: 0
  m_PrefabParentObject: {fileID: 0}
  m_PrefabInternal: {fileID: 0}
  m_GameObject: {fileID: 0}
  m_Enabled: 1
  m_EditorHideFlags: 0
  m_Script: {fileID: 11500000, guid: 8ca0067bb79ba477e8bcc1cf602790bd, type: 3}
  m_Name: Spur
  m_EditorClassIdentifier: 
  id: 13
  icon: {fileID: 21300026, guid: 6f989b56ccd934f51902b460f7105767, type: 3}
  displayName: Spur
  xpPerLevel: 28000000640000002c010000
  bulletPrefabNames:
  - spurLvl1
  - spurLvl2
  - spurLvl3
  xp: 0
  maxAmmo: 0
  currentAmmo: 0
